…
## 2️⃣ Keep or drop columns

Sometimes, to keep our outputs more focused and easy to work with, we
only keep the columns we care about. The
[`select()`](https://dplyr.tidyverse.org/reference/select.html) function
lets you choose which columns to keep or drop, using their names or
types.

#### *Select one column by name*

``` r
select(penguins, species)
```

    # A tibble: 344 × 1
       species
       <fct>  
     1 Adelie 
     2 Adelie 
     3 Adelie 
     4 Adelie 
     5 Adelie 
     6 Adelie 
     7 Adelie 
     8 Adelie 
     9 Adelie 
    10 Adelie 
    # ℹ 334 more rows

#### *Select multiple columns by name*

``` r
# option 1
select(penguins, species, island)
```

    # A tibble: 344 × 2
       species island   
       <fct>   <fct>    
     1 Adelie  Torgersen
     2 Adelie  Torgersen
     3 Adelie  Torgersen
     4 Adelie  Torgersen
     5 Adelie  Torgersen
     6 Adelie  Torgersen
     7 Adelie  Torgersen
     8 Adelie  Torgersen
     9 Adelie  Torgersen
    10 Adelie  Torgersen
    # ℹ 334 more rows

``` r
# option 2
select(penguins, c(species, island))
```

    # A tibble: 344 × 2
       species island   
       <fct>   <fct>    
     1 Adelie  Torgersen
     2 Adelie  Torgersen
     3 Adelie  Torgersen
     4 Adelie  Torgersen
     5 Adelie  Torgersen
     6 Adelie  Torgersen
     7 Adelie  Torgersen
     8 Adelie  Torgersen
     9 Adelie  Torgersen
    10 Adelie  Torgersen
    # ℹ 334 more rows

#### *Select everything except certain columns*

``` r
# option 1
select(penguins, -species, -island)
```

    # A tibble: 344 × 6
       bill_length_mm bill_depth_mm flipper_length_mm body_mass_g sex     year
                <dbl>         <dbl>             <int>       <int> <fct>  <int>
     1           39.1          18.7               181        3750 male    2007
     2           39.5          17.4               186        3800 female  2007
     3           40.3          18                 195        3250 female  2007
     4           NA            NA                  NA          NA <NA>    2007
     5           36.7          19.3               193        3450 female  2007
     6           39.3          20.6               190        3650 male    2007
     7           38.9          17.8               181        3625 female  2007
     8           39.2          19.6               195        4675 male    2007
     9           34.1          18.1               193        3475 <NA>    2007
    10           42            20.2               190        4250 <NA>    2007
    # ℹ 334 more rows

``` r
# option 2
select(penguins, -c(species, island))
```

    # A tibble: 344 × 6
       bill_length_mm bill_depth_mm flipper_length_mm body_mass_g sex     year
                <dbl>         <dbl>             <int>       <int> <fct>  <int>
     1           39.1          18.7               181        3750 male    2007
     2           39.5          17.4               186        3800 female  2007
     3           40.3          18                 195        3250 female  2007
     4           NA            NA                  NA          NA <NA>    2007
     5           36.7          19.3               193        3450 female  2007
     6           39.3          20.6               190        3650 male    2007
     7           38.9          17.8               181        3625 female  2007
     8           39.2          19.6               195        4675 male    2007
     9           34.1          18.1               193        3475 <NA>    2007
    10           42            20.2               190        4250 <NA>    2007
    # ℹ 334 more rows

#### *Select columns that start with “bill”*

``` r
select(penguins, starts_with("bill"))
```

    # A tibble: 344 × 2
       bill_length_mm bill_depth_mm
                <dbl>         <dbl>
     1           39.1          18.7
     2           39.5          17.4
     3           40.3          18  
     4           NA            NA  
     5           36.7          19.3
     6           39.3          20.6
     7           38.9          17.8
     8           39.2          19.6
     9           34.1          18.1
    10           42            20.2
    # ℹ 334 more rows

- Similar functions, such as `ends_with()` and `contains()`, are also
  available for selecting columns based on how their names end or
  whether they contain specific characters.

#### *Select numeric variables*

``` r
select(penguins, where(is.numeric))
```

    # A tibble: 344 × 5
       bill_length_mm bill_depth_mm flipper_length_mm body_mass_g  year
                <dbl>         <dbl>             <int>       <int> <int>
     1           39.1          18.7               181        3750  2007
     2           39.5          17.4               186        3800  2007
     3           40.3          18                 195        3250  2007
     4           NA            NA                  NA          NA  2007
     5           36.7          19.3               193        3450  2007
     6           39.3          20.6               190        3650  2007
     7           38.9          17.8               181        3625  2007
     8           39.2          19.6               195        4675  2007
     9           34.1          18.1               193        3475  2007
    10           42            20.2               190        4250  2007
    # ℹ 334 more rows

## 3️⃣ Keep rows that match a condition

To keep only the observations that meet specific conditions, we can use
the [`filter()`](https://dplyr.tidyverse.org/reference/filter.html)
function.

#### *Filter the data to keep only penguins belonging to the Gentoo species*

``` r
filter(penguins, species == "Gentoo")
```

    # A tibble: 124 × 8
       species island bill_length_mm bill_depth_mm flipper_length_mm body_mass_g
       <fct>   <fct>           <dbl>         <dbl>             <int>       <int>
     1 Gentoo  Biscoe           46.1          13.2               211        4500
     2 Gentoo  Biscoe           50            16.3               230        5700
     3 Gentoo  Biscoe           48.7          14.1               210        4450
     4 Gentoo  Biscoe           50            15.2               218        5700
     5 Gentoo  Biscoe           47.6          14.5               215        5400
     6 Gentoo  Biscoe           46.5          13.5               210        4550
     7 Gentoo  Biscoe           45.4          14.6               211        4800
     8 Gentoo  Biscoe           46.7          15.3               219        5200
     9 Gentoo  Biscoe           43.3          13.4               209        4400
    10 Gentoo  Biscoe           46.8          15.4               215        5150
    # ℹ 114 more rows
    # ℹ 2 more variables: sex <fct>, year <int>

#### *Filter the data to keep only penguins belonging to the Adelie species on Torgersen Island*

``` r
filter(penguins, species == "Adelie", island == "Torgersen")
```

    # A tibble: 52 × 8
       species island    bill_length_mm bill_depth_mm flipper_length_mm body_mass_g
       <fct>   <fct>              <dbl>         <dbl>             <int>       <int>
     1 Adelie  Torgersen           39.1          18.7               181        3750
     2 Adelie  Torgersen           39.5          17.4               186        3800
     3 Adelie  Torgersen           40.3          18                 195        3250
     4 Adelie  Torgersen           NA            NA                  NA          NA
     5 Adelie  Torgersen           36.7          19.3               193        3450
     6 Adelie  Torgersen           39.3          20.6               190        3650
     7 Adelie  Torgersen           38.9          17.8               181        3625
     8 Adelie  Torgersen           39.2          19.6               195        4675
     9 Adelie  Torgersen           34.1          18.1               193        3475
    10 Adelie  Torgersen           42            20.2               190        4250
    # ℹ 42 more rows
    # ℹ 2 more variables: sex <fct>, year <int>

- The comma acts like an AND operator: both conditions must be `TRUE`
  for a row to be kept.

#### *Filter the data to keep penguins belonging to the Adelie or Gentoo species*

``` r
# option 1: OR operator
filter(penguins, species == "Adelie" | species == "Gentoo")
```

    # A tibble: 276 × 8
       species island    bill_length_mm bill_depth_mm flipper_length_mm body_mass_g
       <fct>   <fct>              <dbl>         <dbl>             <int>       <int>
     1 Adelie  Torgersen           39.1          18.7               181        3750
     2 Adelie  Torgersen           39.5          17.4               186        3800
     3 Adelie  Torgersen           40.3          18                 195        3250
     4 Adelie  Torgersen           NA            NA                  NA          NA
     5 Adelie  Torgersen           36.7          19.3               193        3450
     6 Adelie  Torgersen           39.3          20.6               190        3650
     7 Adelie  Torgersen           38.9          17.8               181        3625
     8 Adelie  Torgersen           39.2          19.6               195        4675
     9 Adelie  Torgersen           34.1          18.1               193        3475
    10 Adelie  Torgersen           42            20.2               190        4250
    # ℹ 266 more rows
    # ℹ 2 more variables: sex <fct>, year <int>

- The vertical bar is the OR operator: a row is kept if at least one
  condition is `TRUE`.

``` r
# option 2: inequality operator
filter(penguins, species != "Chinstrap")
```

    # A tibble: 276 × 8
       species island    bill_length_mm bill_depth_mm flipper_length_mm body_mass_g
       <fct>   <fct>              <dbl>         <dbl>             <int>       <int>
     1 Adelie  Torgersen           39.1          18.7               181        3750
     2 Adelie  Torgersen           39.5          17.4               186        3800
     3 Adelie  Torgersen           40.3          18                 195        3250
     4 Adelie  Torgersen           NA            NA                  NA          NA
     5 Adelie  Torgersen           36.7          19.3               193        3450
     6 Adelie  Torgersen           39.3          20.6               190        3650
     7 Adelie  Torgersen           38.9          17.8               181        3625
     8 Adelie  Torgersen           39.2          19.6               195        4675
     9 Adelie  Torgersen           34.1          18.1               193        3475
    10 Adelie  Torgersen           42            20.2               190        4250
    # ℹ 266 more rows
    # ℹ 2 more variables: sex <fct>, year <int>

### ✏️ Exercise 1

1.  Select the `sex` and `year` columns from the data.
2.  Filter the data to keep only penguins whose bill length is greater
    than 40 mm.
3.  Filter the data to keep penguins on either Biscoe Island or
    Torgersen Island.

``` r
select(penguins, sex, year)
```

    # A tibble: 344 × 2
       sex     year
       <fct>  <int>
     1 male    2007
     2 female  2007
     3 female  2007
     4 <NA>    2007
     5 female  2007
     6 male    2007
     7 female  2007
     8 male    2007
     9 <NA>    2007
    10 <NA>    2007
    # ℹ 334 more rows

``` r
filter(penguins, bill_length_mm > 40)
```

    # A tibble: 242 × 8
       species island    bill_length_mm bill_depth_mm flipper_length_mm body_mass_g
       <fct>   <fct>              <dbl>         <dbl>             <int>       <int>
     1 Adelie  Torgersen           40.3          18                 195        3250
     2 Adelie  Torgersen           42            20.2               190        4250
     3 Adelie  Torgersen           41.1          17.6               182        3200
     4 Adelie  Torgersen           42.5          20.7               197        4500
     5 Adelie  Torgersen           46            21.5               194        4200
     6 Adelie  Biscoe              40.6          18.6               183        3550
     7 Adelie  Biscoe              40.5          17.9               187        3200
     8 Adelie  Biscoe              40.5          18.9               180        3950
     9 Adelie  Dream               40.9          18.9               184        3900
    10 Adelie  Dream               42.2          18.5               180        3550
    # ℹ 232 more rows
    # ℹ 2 more variables: sex <fct>, year <int>

``` r
filter(penguins, island == "Biscoe" | island == "Torgersen")
```

    # A tibble: 220 × 8
       species island    bill_length_mm bill_depth_mm flipper_length_mm body_mass_g
       <fct>   <fct>              <dbl>         <dbl>             <int>       <int>
     1 Adelie  Torgersen           39.1          18.7               181        3750
     2 Adelie  Torgersen           39.5          17.4               186        3800
     3 Adelie  Torgersen           40.3          18                 195        3250
     4 Adelie  Torgersen           NA            NA                  NA          NA
     5 Adelie  Torgersen           36.7          19.3               193        3450
     6 Adelie  Torgersen           39.3          20.6               190        3650
     7 Adelie  Torgersen           38.9          17.8               181        3625
     8 Adelie  Torgersen           39.2          19.6               195        4675
     9 Adelie  Torgersen           34.1          18.1               193        3475
    10 Adelie  Torgersen           42            20.2               190        4250
    # ℹ 210 more rows
    # ℹ 2 more variables: sex <fct>, year <int>

## 4️⃣ Pipes

#### *First, filter the data to keep only penguins belonging to the Adelie species, then select columns that start with “bill”*

``` r
select(filter(penguins, species == "Adelie"), starts_with("bill"))
```

    # A tibble: 152 × 2
       bill_length_mm bill_depth_mm
                <dbl>         <dbl>
     1           39.1          18.7
     2           39.5          17.4
     3           40.3          18  
     4           NA            NA  
     5           36.7          19.3
     6           39.3          20.6
     7           38.9          17.8
     8           39.2          19.6
     9           34.1          18.1
    10           42            20.2
    # ℹ 142 more rows
…
<img src="../imgs/pingu-crying.jpg" data-fig-align="center"
width="600" />

#### *Use the pipe to rewrite the code in a cleaner way*

Keyboard shortcut: **Ctrl/Cmd + Shift + M**

``` r
penguins |> 
  filter(species == "Adelie") |> 
  select(starts_with("bill"))
```

    # A tibble: 152 × 2
       bill_length_mm bill_depth_mm
                <dbl>         <dbl>
     1           39.1          18.7
     2           39.5          17.4
     3           40.3          18  
     4           NA            NA  
     5           36.7          19.3
     6           39.3          20.6
     7           38.9          17.8
     8           39.2          19.6
     9           34.1          18.1
    10           42            20.2
    # ℹ 142 more rows
…
<img src="../imgs/pipe-illustration.png" data-fig-align="center"
width="600" />

### ✏️ Exercise 2

1.  Using the pipe, filter the data to keep only female penguins, then
    select the `species` and `body_mass_g` columns.

``` r
penguins |> 
  filter(sex == "female") |> 
  select(species, body_mass_g)
```

    # A tibble: 165 × 2
       species body_mass_g
       <fct>         <int>
     1 Adelie         3800
     2 Adelie         3250
     3 Adelie         3450
     4 Adelie         3625
     5 Adelie         3200
     6 Adelie         3700
     7 Adelie         3450
     8 Adelie         3325
     9 Adelie         3400
    10 Adelie         3800
    # ℹ 155 more rows

## 5️⃣ Create and modify columns

We can use the
[`mutate()`](https://dplyr.tidyverse.org/reference/mutate.html) function
to derive new variables from existing ones.

#### *Create a new column by converting an existing one from grams to kilograms*

``` r
penguins |> 
  mutate(body_mass_kg = body_mass_g / 1000)
```

    # A tibble: 344 × 9
       species island    bill_length_mm bill_depth_mm flipper_length_mm body_mass_g
       <fct>   <fct>              <dbl>         <dbl>             <int>       <int>
     1 Adelie  Torgersen           39.1          18.7               181        3750
     2 Adelie  Torgersen           39.5          17.4               186        3800
     3 Adelie  Torgersen           40.3          18                 195        3250
     4 Adelie  Torgersen           NA            NA                  NA          NA
     5 Adelie  Torgersen           36.7          19.3               193        3450
     6 Adelie  Torgersen           39.3          20.6               190        3650
     7 Adelie  Torgersen           38.9          17.8               181        3625
     8 Adelie  Torgersen           39.2          19.6               195        4675
     9 Adelie  Torgersen           34.1          18.1               193        3475
    10 Adelie  Torgersen           42            20.2               190        4250
    # ℹ 334 more rows
    # ℹ 3 more variables: sex <fct>, year <int>, body_mass_kg <dbl>

#### *Create a column that classifies flipper length into two categories*

``` r
penguins |> 
  mutate(long_flipper = if_else(flipper_length_mm >= 200, "yes", "no"))
```

    # A tibble: 344 × 9
       species island    bill_length_mm bill_depth_mm flipper_length_mm body_mass_g
       <fct>   <fct>              <dbl>         <dbl>             <int>       <int>
     1 Adelie  Torgersen           39.1          18.7               181        3750
     2 Adelie  Torgersen           39.5          17.4               186        3800
     3 Adelie  Torgersen           40.3          18                 195        3250
     4 Adelie  Torgersen           NA            NA                  NA          NA
     5 Adelie  Torgersen           36.7          19.3               193        3450
     6 Adelie  Torgersen           39.3          20.6               190        3650
     7 Adelie  Torgersen           38.9          17.8               181        3625
     8 Adelie  Torgersen           39.2          19.6               195        4675
     9 Adelie  Torgersen           34.1          18.1               193        3475
    10 Adelie  Torgersen           42            20.2               190        4250
    # ℹ 334 more rows
    # ℹ 3 more variables: sex <fct>, year <int>, long_flipper <chr>
#### *Create a column that classifies flipper length into three categories*

``` r
penguins |> 
  mutate(
    flipper_size = case_when(
      flipper_length_mm < 190 ~ "short",
      flipper_length_mm < 200 ~ "medium",
      flipper_length_mm >= 200 ~ "long",
      .default = "unknown"
    )
  )
```

    # A tibble: 344 × 9
       species island    bill_length_mm bill_depth_mm flipper_length_mm body_mass_g
       <fct>   <fct>              <dbl>         <dbl>             <int>       <int>
     1 Adelie  Torgersen           39.1          18.7               181        3750
     2 Adelie  Torgersen           39.5          17.4               186        3800
     3 Adelie  Torgersen           40.3          18                 195        3250
     4 Adelie  Torgersen           NA            NA                  NA          NA
     5 Adelie  Torgersen           36.7          19.3               193        3450
     6 Adelie  Torgersen           39.3          20.6               190        3650
     7 Adelie  Torgersen           38.9          17.8               181        3625
     8 Adelie  Torgersen           39.2          19.6               195        4675
     9 Adelie  Torgersen           34.1          18.1               193        3475
    10 Adelie  Torgersen           42            20.2               190        4250
    # ℹ 334 more rows
    # ℹ 3 more variables: sex <fct>, year <int>, flipper_size <chr>
…
