…
    Rows: 5462 Columns: 11
    ── Column specification ────────────────────────────────────────────────────────
    Delimiter: ","
    chr (3): service, departure_station, arrival_station
    dbl (8): year, month, journey_time_avg, total_num_trips, avg_delay_all_depar...

    ℹ Use `spec()` to retrieve the full column specification for this data.
    ℹ Specify the column types or set `show_col_types = FALSE` to quiet this message.

``` r
df
```

    # A tibble: 5,462 × 11
        year month service  departure_station       arrival_station journey_time_avg
       <dbl> <dbl> <chr>    <chr>                   <chr>                      <dbl>
     1  2015     1 National AIX EN PROVENCE TGV     PARIS LYON                 182. 
     2  2015     1 National ANGERS SAINT LAUD       PARIS MONTPARN…             98.9
     3  2015     1 National ANGOULEME               PARIS MONTPARN…            156. 
     4  2015     1 National ANNECY                  PARIS LYON                 224. 
     5  2015     1 National ARRAS                   PARIS NORD                  55.6
     6  2015     1 National AVIGNON TGV             PARIS LYON                 161. 
     7  2015     1 National BELLEGARDE (AIN)        PARIS LYON                 164. 
     8  2015     1 National BESANCON FRANCHE COMTE… PARIS LYON                 131. 
     9  2015     1 National BORDEAUX ST JEAN        PARIS MONTPARN…            211. 
    10  2015     1 National BREST                   PARIS MONTPARN…            274. 
    # ℹ 5,452 more rows
    # ℹ 5 more variables: total_num_trips <dbl>, avg_delay_all_departing <dbl>,
    #   avg_delay_all_arriving <dbl>, num_late_at_departure <dbl>,
    #   num_arriving_late <dbl>
…
